<?xml version="1.0" encoding="UTF-8"?>
<CustomTab xmlns="http://soap.sforce.com/2006/04/metadata">
    <description>Version 2 of BMS Dashboard</description>
    <label>BMS Dashboard</label>
    <mobileReady>false</mobileReady>
    <motif>Custom23: Mail</motif>
    <page>BMSEmailReviewV2</page>
</CustomTab>
