<?xml version="1.0" encoding="UTF-8"?>
<CustomTab xmlns="http://soap.sforce.com/2006/04/metadata">
    <frameHeight>600</frameHeight>
    <hasSidebar>false</hasSidebar>
    <label>Enquiry Report</label>
    <mobileReady>false</mobileReady>
    <motif>Custom19: Wrench</motif>
    <url>/00O28000009it2I</url>
    <urlEncodingKey>UTF-8</urlEncodingKey>
</CustomTab>
